<?xml version="1.0" encoding="UTF-8" standalone="no"?>
<!-- Created with Inkscape (http://www.inkscape.org/) -->
<svg
   xmlns:svg="http://www.w3.org/2000/svg"
   version="1.0"
   width="100%"
   height="100%"
   viewBox="0 0 32 32"
   id="svg2"
   xml:space="preserve">
 <defs
   id="defs4" />
 <g
   transform="matrix(1.0685497,0,0,1.0634027,-1.0967956,0.9260553)"
   id="g2387"><path
     d="M 2.4138891,7.3079854 C 1.4710011,14.677151 1.5501447,22.607013 2.6512843,27.584274 C 12.082112,29.01941 21.205431,28.763105 30.021205,27.276729 C 28.944889,18.40968 28.380792,13.005363 30.072197,3.8308048 C 19.401667,6.844739 12.47096,5.1621866 6.2561923,4.3091008 L 2.4138891,7.3079854 L 2.4138891,7.3079854 z "
     style="fill:#dddddd;stroke:#ffffff;stroke-width:0.37687901"
     id="_43075032" /><g
     transform="matrix(8.0353424e-2,0,0,8.0353424e-2,3.3242133,6.8262685)"
     id="g2286"><path
       d="M 0,115 C 0,0 0,0 153.5,0 C 307,0 307,0 307,115 C 307,230 307,230 153.5,230 C 0,230 0,230 0,115 z "
       style="fill:#fbfbe0"
       id="path2221" /><path
       d="M 0,115 C 0.70920449,87.505726 -1.9713066,59.151252 6.2350006,32.501678 C 12.136779,12.987485 33.166733,5.2945265 51.599856,3.2528329 C 95.417789,-1.7366553 139.64587,0.54314758 183.65562,0.039975643 C 214.06681,0.90264093 245.38935,-1.1702947 274.86937,7.7104187 C 291.83307,12.35687 302.25564,28.751864 304.12316,45.546131 C 308.78448,79.718341 306.51514,114.37637 306.79915,148.75765 C 305.68449,169.89248 307.06413,193.92939 292.71887,211.19116 C 276.16073,227.52625 251.01,227.26421 229.32541,229.0362 C 179.56802,230.47573 129.74282,230.38051 79.981611,229.14318 C 58.143984,227.46565 33.354273,227.88933 15.810013,212.75772 C 0.20717335,196.39318 1.4176366,171.93528 0.24703145,150.87691 C -0.024851326,138.92009 0.0076917752,126.9591 0,115 z M 159.93805,130.0715 C 175.94435,116.76377 142.58928,101.65509 137.682,119.07244 C 127.77615,131.60802 153.98607,142.91185 159.93805,130.0715 L 159.93805,130.0715 z "
       style="fill:#faebaf"
       id="path2219" /><path
       d="M 0,115 C 0.70920449,87.505726 -1.9713066,59.151252 6.2350006,32.501678 C 12.136779,12.987485 33.166733,5.2945265 51.599856,3.2528329 C 95.417789,-1.7366553 139.64587,0.54314758 183.65562,0.039975643 C 214.06681,0.90264093 245.38935,-1.1702947 274.86937,7.7104187 C 291.83307,12.35687 302.25564,28.751864 304.12316,45.546131 C 308.78448,79.718341 306.51514,114.37637 306.79915,148.75765 C 305.68449,169.89248 307.06413,193.92939 292.71887,211.19116 C 276.16073,227.52625 251.01,227.26421 229.32541,229.0362 C 179.56802,230.47573 129.74282,230.38051 79.981611,229.14318 C 58.143984,227.46565 33.354273,227.88933 15.810013,212.75772 C 0.20717335,196.39318 1.4176366,171.93528 0.24703145,150.87691 C -0.024851326,138.92009 0.0076917752,126.9591 0,115 z M 163.65164,134 C 176.67502,125.3186 168.23807,106.35856 153.64132,106.94622 C 141.68108,104.29171 124.93253,117.97997 130.67603,130.45151 C 136.04034,141.14315 152.09561,140.30136 161.62417,136.60602 L 162.5611,135.48591 L 163.65164,134 L 163.65164,134 z "
       style="fill:#f2cf8b"
       id="path2217" /><path
       d="M 0,115 C 0.70920449,87.505726 -1.9713066,59.151252 6.2350006,32.501678 C 12.136779,12.987485 33.166733,5.2945265 51.599856,3.2528329 C 95.417789,-1.7366553 139.64587,0.54314758 183.65562,0.039975643 C 214.06681,0.90264093 245.38935,-1.1702947 274.86937,7.7104187 C 291.83307,12.35687 302.25564,28.751864 304.12316,45.546131 C 308.78448,79.718341 306.51514,114.37637 306.79915,148.75765 C 305.68449,169.89248 307.06413,193.92939 292.71887,211.19116 C 276.16073,227.52625 251.01,227.26421 229.32541,229.0362 C 179.56802,230.47573 129.74282,230.38051 79.981611,229.14318 C 58.143984,227.46565 33.354273,227.88933 15.810013,212.75772 C 0.20717335,196.39318 1.4176366,171.93528 0.24703145,150.87691 C -0.024851326,138.92009 0.0076917752,126.9591 0,115 z M 163.90115,138.55112 C 175.1262,132.05617 181.90441,114.85445 167.76624,107.59617 C 157.02042,100.74782 141.74661,98.406156 132.66841,108.98933 C 122.9428,115.37231 120.71652,130.3719 131.5762,136.77965 C 141.83392,140.31225 153.24398,141.17117 163.90115,138.55112 z "
       style="fill:#efc777"
       id="path2215" /><path
       d="M 0,115 C 0.70920449,87.505726 -1.9713066,59.151252 6.2350006,32.501678 C 12.136779,12.987485 33.166733,5.2945265 51.599856,3.2528329 C 95.417789,-1.7366553 139.64587,0.54314758 183.65562,0.039975643 C 214.06681,0.90264093 245.38935,-1.1702947 274.86937,7.7104187 C 291.83307,12.35687 302.25564,28.751864 304.12316,45.546131 C 308.78448,79.718341 306.51514,114.37637 306.79915,148.75765 C 305.68449,169.89248 307.06413,193.92939 292.71887,211.19116 C 276.16073,227.52625 251.01,227.26421 229.32541,229.0362 C 179.56802,230.47573 129.74282,230.38051 79.981611,229.14318 C 58.143984,227.46565 33.354273,227.88933 15.810013,212.75772 C 0.20717335,196.39318 1.4176366,171.93528 0.24703145,150.87691 C -0.024851326,138.92009 0.0076917752,126.9591 0,115 z M 167.30846,139.90648 C 182.77345,139.36691 183.36796,119.52791 174.11897,110.84301 C 164.2453,104.8471 150.74377,97.929462 139.62756,104.01422 C 129.71993,110.84517 112.64267,122.3527 120.11679,136.16256 C 132.80919,140.09184 146.34373,141.28475 159.69561,140.67924 C 162.2412,140.51405 164.78501,140.28602 167.30846,139.90648 z "
       style="fill:#deb982"
       id="path2213" /><path
       d="M 0,115 C 0.70920449,87.505726 -1.9713066,59.151252 6.2350006,32.501678 C 12.136779,12.987485 33.166733,5.2945265 51.599856,3.2528329 C 95.417789,-1.7366553 139.64587,0.54314758 183.65562,0.039975643 C 214.06681,0.90264093 245.38935,-1.1702947 274.86937,7.7104187 C 291.83307,12.35687 302.25564,28.751864 304.12316,45.546131 C 308.78448,79.718341 306.51514,114.37637 306.79915,148.75765 C 305.68449,169.89248 307.06413,193.92939 292.71887,211.19116 C 276.16073,227.52625 251.01,227.26421 229.32541,229.0362 C 179.56802,230.47573 129.74282,230.38051 79.981611,229.14318 C 58.143984,227.46565 33.354273,227.88933 15.810013,212.75772 C 0.20717335,196.39318 1.4176366,171.93528 0.24703145,150.87691 C -0.024851326,138.92009 0.0076917752,126.9591 0,115 z M 168.94279,139.64206 C 182.84006,136.9928 186.1712,118.73981 178.55154,108.00458 C 167.68122,97.088307 150.72152,91.925991 135.96197,97.525464 C 125.41653,103.28129 114.19507,115.98888 117.84089,129.20638 C 119.60612,143.61585 140.05622,137.86321 150.55772,140.85077 C 156.69711,140.82295 162.87181,140.61762 168.94279,139.64206 z "
       style="fill:#d0a96b"
       id="path2211" /><path
       d="M 0,115 C 0.70920449,87.505726 -1.9713066,59.151252 6.2350006,32.501678 C 12.136779,12.987485 33.166733,5.2945265 51.599856,3.2528329 C 95.417789,-1.7366553 139.64587,0.54314758 183.65562,0.039975643 C 214.06681,0.90264093 245.38935,-1.1702947 274.86937,7.7104187 C 291.83307,12.35687 302.25564,28.751864 304.12316,45.546131 C 308.78448,79.718341 306.51514,114.37637 306.79915,148.75765 C 305.68449,169.89248 307.06413,193.92939 292.71887,211.19116 C 276.16073,227.52625 251.01,227.26421 229.32541,229.0362 C 179.56802,230.47573 129.74282,230.38051 79.981611,229.14318 C 58.143984,227.46565 33.354273,227.88933 15.810013,212.75772 C 0.20717335,196.39318 1.4176366,171.93528 0.24703145,150.87691 C -0.024851326,138.92009 0.0076917752,126.9591 0,115 z M 167.5,141.0502 C 180.12935,141.23025 194.29682,140.15374 196.73402,124.87883 C 191.96164,114.6783 187.23914,102.5604 175.72965,97.76882 C 162.91099,90.749868 147.3375,87.709408 133.35458,93 C 121.32314,96.534214 113.9081,107.30163 106.95454,116.88845 C 96.123249,129.05556 110.89364,139.69455 123.40196,138.38793 C 136.38934,141.50975 150.38184,143.25395 163.76875,141.46717 L 165.63086,141.25877 L 167.5,141.0502 L 167.5,141.0502 z "
       style="fill:#ad936d"
       id="path2209" /><path
       d="M 0,115 C 1.0597751,85.245715 -3.0528993,53.770396 9.1226816,25.725925 C 20.690535,6.2899997 45.465886,3.1659027 65.991512,1.8633895 C 115.65756,-1.5756529 165.4938,0.49401029 215.22837,0.45311764 C 238.2261,1.2510361 262.55103,1.4084663 283.70829,11.48834 C 299.44684,20.688509 304.7455,39.66621 305.41633,56.775325 C 308.31834,91.39698 306.81785,126.20614 306.31512,160.88828 C 305.63151,181.14138 303.75629,206.20054 284.3739,217.70369 C 263.49808,229.50273 238.50325,228.09486 215.32946,229.40093 C 164.63632,230.19072 113.838,231.01513 63.209211,228.00313 C 43.211263,226.54302 18.661712,222.63328 8.6801684,202.77483 C -1.3524272,181.80397 1.0887629,157.75406 0.036130381,135.1817 C -0.0040772277,128.45454 0.0043266942,121.72724 0,115 z M 167.5,141.0502 C 183.81785,144.29798 195.12922,132.65148 203.64125,121.25473 C 213.89738,105.74901 193.73652,96.701668 184.04863,88.669574 C 169.5167,78.861345 150.5355,78.956243 133.79618,81.172837 C 115.48773,85.187006 100.61367,98.5866 91.420682,114.52859 C 100.64968,125.14348 108.5992,140.13221 125.05111,139.15395 C 139.07311,141.42996 153.35018,143.53359 167.5,141.0502 z "
       style="fill:#ad8b52"
       id="path2207" /><path
       d="M 0,115 C 0.70920449,87.505726 -1.9713066,59.151252 6.2350006,32.501678 C 12.136779,12.987485 33.166733,5.2945265 51.599856,3.2528329 C 95.417789,-1.7366553 139.64587,0.54314758 183.65562,0.039975643 C 214.06681,0.90264093 245.38935,-1.1702947 274.86937,7.7104187 C 291.83307,12.35687 302.25564,28.751864 304.12316,45.546131 C 308.78448,79.718341 306.51514,114.37637 306.79915,148.75765 C 305.68449,169.89248 307.06413,193.92939 292.71887,211.19116 C 276.16073,227.52625 251.01,227.26421 229.32541,229.0362 C 179.56802,230.47573 129.74282,230.38051 79.981611,229.14318 C 58.143984,227.46565 33.354273,227.88933 15.810013,212.75772 C 0.20717335,196.39318 1.4176366,171.93528 0.24703145,150.87691 C -0.024851326,138.92009 0.0076917752,126.9591 0,115 z M 156.4995,145.35764 C 168.07482,139.64677 181.94094,142.48811 194.49662,141.38979 C 208.07856,143.55065 223.96718,137.94143 220.68976,122.08646 C 215.94222,115.71675 204.63633,116.30763 204.93682,105.20727 C 194.21,98.280492 185.60053,87.070892 172.78436,82.788504 C 157.30733,80.437264 141.0366,77.371176 126,83.42394 C 111.94646,88.607504 101.77437,100.0002 92.937399,110.61531 C 86.312239,116.32267 77.842526,121.59832 71.465476,126.75464 C 82.949203,133.3504 93.304909,140.14336 107.90008,137.81928 C 121.46495,139.59516 134.28,141.90533 147.76114,144.36055 C 150.88539,143.2807 154.42162,149.60758 156.4995,145.35764 z "
       style="fill:#96846b"
       id="path2205" /><path
       d="M 0,115 C 0.70920449,87.505726 -1.9713066,59.151252 6.2350006,32.501678 C 12.136779,12.987485 33.166733,5.2945265 51.599856,3.2528329 C 95.417789,-1.7366553 139.64587,0.54314758 183.65562,0.039975643 C 214.06681,0.90264093 245.38935,-1.1702947 274.86937,7.7104187 C 291.83307,12.35687 302.25564,28.751864 304.12316,45.546131 C 308.78448,79.718341 306.51514,114.37637 306.79915,148.75765 C 305.68449,169.89248 307.06413,193.92939 292.71887,211.19116 C 276.16073,227.52625 251.01,227.26421 229.32541,229.0362 C 179.56802,230.47573 129.74282,230.38051 79.981611,229.14318 C 58.143984,227.46565 33.354273,227.88933 15.810013,212.75772 C 0.20717335,196.39318 1.4176366,171.93528 0.24703145,150.87691 C -0.024851326,138.92009 0.0076917752,126.9591 0,115 z M 156.4995,145.35764 C 168.08526,139.64388 181.96324,142.48916 194.52933,141.38978 C 207.83611,142.99843 221.98723,139.10075 221.465,123.84066 C 226.68438,116.13241 227.5353,99.518044 213.29097,99.071587 C 201.68092,89.881977 192.78422,74.342574 176.62335,73.663208 C 153.22468,72.72985 127.37447,68.318605 106.52329,82.027729 C 96.148558,87.650219 89.015489,97.056842 82.946902,107.02395 C 73.756905,110.89859 75.954445,117.71212 78.487614,122.23999 C 69.023413,124.16363 71.090152,128.4245 79.487976,129.89873 C 88.044762,142.11548 105.00562,135.15387 117.48152,138.99298 C 130.10411,141.01695 145.22888,144.63868 156.4995,145.35764 z "
       style="fill:#877968"
       id="path2203" /><path
       d="M 0,115 C 0.70920449,87.505726 -1.9713066,59.151252 6.2350006,32.501678 C 12.136779,12.987485 33.166733,5.2945265 51.599856,3.2528329 C 95.417789,-1.7366553 139.64587,0.54314758 183.65562,0.039975643 C 214.06681,0.90264093 245.38935,-1.1702947 274.86937,7.7104187 C 291.83307,12.35687 302.25564,28.751864 304.12316,45.546131 C 308.78448,79.718341 306.51514,114.37637 306.79915,148.75765 C 305.68449,169.89248 307.06413,193.92939 292.71887,211.19116 C 276.16073,227.52625 251.01,227.26421 229.32541,229.0362 C 179.56802,230.47573 129.74282,230.38051 79.981611,229.14318 C 58.143984,227.46565 33.354273,227.88933 15.810013,212.75772 C 0.20717335,196.39318 1.4176366,171.93528 0.24703145,150.87691 C -0.024851326,138.92009 0.0076917752,126.9591 0,115 z M 156.4995,145.35764 C 168.08526,139.64388 181.96324,142.48916 194.52933,141.38978 C 207.79743,142.96115 221.87407,139.18247 221.49285,123.96745 C 222.74604,109.85807 238.68914,109.31324 246.99683,102.10079 C 235.65008,95.194502 221.95533,90.9946 212.23867,80.905907 C 206.03107,71.104513 195.50017,59.476804 182.7222,61.267343 C 162.23325,64.082501 141.25179,61.895176 121.05038,66.870261 C 107.97671,68.110911 95.921793,75.172696 84.179338,80.767829 C 77.609462,87.397789 71.070281,96.416364 66.582036,103.84847 C 74.699968,105.31412 78.417144,111.82294 75.910881,117.20656 C 88.160643,122.82325 60.849255,125.80762 76.875459,128.671 C 86.27854,140.40738 102.09336,136.47021 115.53187,138.57022 C 128.84486,140.90709 144.52226,144.47882 156.4995,145.35764 L 156.4995,145.35764 z "
       style="fill:#8b7650"
       id="path2201" /><path
       d="M 0,115 C 0.70920449,87.505726 -1.9713066,59.151252 6.2350006,32.501678 C 12.136779,12.987485 33.166733,5.2945265 51.599856,3.2528329 C 95.417789,-1.7366553 139.64587,0.54314758 183.65562,0.039975643 C 214.06681,0.90264093 245.38935,-1.1702947 274.86937,7.7104187 C 291.83307,12.35687 302.25564,28.751864 304.12316,45.546131 C 308.78448,79.718341 306.51514,114.37637 306.79915,148.75765 C 305.68449,169.89248 307.06413,193.92939 292.71887,211.19116 C 276.16073,227.52625 251.01,227.26421 229.32541,229.0362 C 179.56802,230.47573 129.74282,230.38051 79.981611,229.14318 C 58.143984,227.46565 33.354273,227.88933 15.810013,212.75772 C 0.20717335,196.39318 1.4176366,171.93528 0.24703145,150.87691 C -0.024851326,138.92009 0.0076917752,126.9591 0,115 z M 156.51669,145.34044 C 177.14943,136.93529 200.8666,145.79311 221.7598,137.5567 C 234.47221,133.56228 249.88738,130.01013 257.70308,119.29765 C 262.61106,108.00238 241.15347,112.60525 246.23214,101.28006 C 233.97455,95.270637 220.59118,89.792709 210.80711,79.465117 C 205.06906,68.970368 192.82481,58.242977 180.07045,61.628209 C 160.42145,63.873837 140.38155,62.128059 121.05038,66.870261 C 107.97671,68.110911 95.921793,75.172696 84.179338,80.767829 C 74.204597,88.788157 70.519434,105.49952 55.82591,106.93138 C 49.842855,111.50594 42.542332,113.94807 35.127245,117.29605 C 33.889501,124.57716 57.96483,121.66264 43.612733,128.51922 C 55.160978,131.96606 67.420898,134.13017 79.386899,136.1583 C 95.457724,138.3297 112.47146,136.03304 127.81079,141.6326 C 137.32497,139.71022 148.77709,147.08324 156.51669,145.34044 z "
       style="fill:#746c65"
       id="path2199" /><path
       d="M 0,115 C 0.70920449,87.505726 -1.9713066,59.151252 6.2350006,32.501678 C 12.136779,12.987485 33.166733,5.2945265 51.599856,3.2528329 C 95.417789,-1.7366553 139.64587,0.54314758 183.65562,0.039975643 C 214.06681,0.90264093 245.38935,-1.1702947 274.86937,7.7104187 C 291.83307,12.35687 302.25564,28.751864 304.12316,45.546131 C 308.78448,79.718341 306.51514,114.37637 306.79915,148.75765 C 305.68449,169.89248 307.06413,193.92939 292.71887,211.19116 C 276.16073,227.52625 251.01,227.26421 229.32541,229.0362 C 179.56802,230.47573 129.74282,230.38051 79.981611,229.14318 C 58.143984,227.46565 33.354273,227.88933 15.810013,212.75772 C 0.20717335,196.39318 1.4176366,171.93528 0.24703145,150.87691 C -0.024851326,138.92009 0.0076917752,126.9591 0,115 z M 156.51669,145.34044 C 177.14943,136.93529 200.8666,145.79311 221.7598,137.5567 C 234.50041,133.31236 250.95438,130.18272 257.9352,118.43684 C 262.01962,111.62547 243.42882,106.96165 256.34584,104 C 264.58819,94.194028 244.11224,94.181621 243.33401,85.499926 C 232.43368,75.574239 220.51993,67.308627 209.55227,57.391985 C 196.56657,49.020417 180.21084,51.88021 165.47506,51.348414 C 147.14071,51.043781 128.96919,53.645291 110.76037,54.872739 C 97.244336,60.865662 82.141149,65.420944 70.605351,74.887822 C 60.45415,79.058996 50.684527,91.9429 55.443855,100.66471 C 53.293722,104.25553 65.152561,106.18751 53.785296,107.41725 C 51.365803,115.08094 31.840432,112.07457 36.49901,120.86439 C 41.932698,122.08973 54.854468,124.14872 43.612733,128.51922 C 55.160978,131.96606 67.420898,134.13017 79.386899,136.1583 C 95.457724,138.3297 112.47146,136.03304 127.81079,141.6326 C 137.32497,139.71022 148.77709,147.08324 156.51669,145.34044 z "
       style="fill:#686462"
       id="path2197" /><path
       d="M 0,115 C 0.70920449,87.505726 -1.9713066,59.151252 6.2350006,32.501678 C 12.136779,12.987485 33.166733,5.2945265 51.599856,3.2528329 C 95.417789,-1.7366553 139.64587,0.54314758 183.65562,0.039975643 C 214.06681,0.90264093 245.38935,-1.1702947 274.86937,7.7104187 C 291.83307,12.35687 302.25564,28.751864 304.12316,45.546131 C 308.78448,79.718341 306.51514,114.37637 306.79915,148.75765 C 305.68449,169.89248 307.06413,193.92939 292.71887,211.19116 C 276.16073,227.52625 251.01,227.26421 229.32541,229.0362 C 179.56802,230.47573 129.74282,230.38051 79.981611,229.14318 C 58.143984,227.46565 33.354273,227.88933 15.810013,212.75772 C 0.20717335,196.39318 1.4176366,171.93528 0.24703145,150.87691 C -0.024851326,138.92009 0.0076917752,126.9591 0,115 z M 156.51669,145.34044 C 177.14943,136.93529 200.8666,145.79311 221.7598,137.5567 C 234.50041,133.31236 250.95438,130.18272 257.9352,118.43684 C 262.01962,111.62547 243.42882,106.96165 256.34584,104 C 267.58532,95.949497 237.29242,90.548391 248.95834,88.147067 C 256.5261,88.697753 249.57695,84.976203 258.55503,88.554 C 260.26392,75.986586 242.93288,71.777262 235.64825,64.022335 C 225.70956,57.171306 216.64607,48.220296 204.13664,45.953052 C 191.25517,40.030987 177.17424,43.90621 163.79458,41.603427 C 150.87744,40.818759 137.54335,37.906327 124.75655,40.339936 C 112.26881,44.547963 97.757802,43.194229 86.5165,51.08689 C 74.088577,58.826249 63.120182,68.803856 49.602125,75.141579 C 40.195807,79.254683 38.590389,88.110933 49.841564,87.439172 C 57.693127,87.102954 53.644914,97.969955 55.480973,100.63757 C 53.219425,104.26309 65.191559,106.18012 53.785296,107.41725 C 51.365803,115.08094 31.840432,112.07457 36.49901,120.86439 C 41.932698,122.08973 54.854468,124.14872 43.612733,128.51922 C 55.160978,131.96606 67.420898,134.13017 79.386899,136.1583 C 95.457724,138.3297 112.47146,136.03304 127.81079,141.6326 C 137.32497,139.71022 148.77709,147.08324 156.51669,145.34044 z "
       style="fill:#6f6655"
       id="path2195" /><path
       d="M 0,115 C 0.70920449,87.505726 -1.9713066,59.151252 6.2350006,32.501678 C 12.136779,12.987485 33.166733,5.2945265 51.599856,3.2528329 C 95.417789,-1.7366553 139.64587,0.54314758 183.65562,0.039975643 C 214.06681,0.90264093 245.38935,-1.1702947 274.86937,7.7104187 C 291.83307,12.35687 302.25564,28.751864 304.12316,45.546131 C 308.78448,79.718341 306.51514,114.37637 306.79915,148.75765 C 305.68449,169.89248 307.06413,193.92939 292.71887,211.19116 C 276.16073,227.52625 251.01,227.26421 229.32541,229.0362 C 179.56802,230.47573 129.74282,230.38051 79.981611,229.14318 C 58.143984,227.46565 33.354273,227.88933 15.810013,212.75772 C 0.20717335,196.39318 1.4176366,171.93528 0.24703145,150.87691 C -0.024851326,138.92009 0.0076917752,126.9591 0,115 z M 156.51669,145.34044 C 177.14943,136.93529 200.8666,145.79311 221.7598,137.5567 C 235.8916,134.36955 248.2228,128.06723 260.03896,119.875 C 268.50628,118.23451 290.1576,119.36054 276.52537,108.15486 C 285.44133,93.080875 260.6115,94.500791 259.05437,84.419247 C 252.82076,73.231924 239.47436,68.452298 230.37114,60 C 220.64733,52.304284 209.72645,46.156443 197.13083,43.954523 C 184.11091,40.173373 170.38928,44.353519 157.266,40.821719 C 144.17398,40.631312 130.56274,36.779678 118.08067,42.388319 C 101.31889,43.638298 83.981338,48.810212 72.462122,61.68642 C 62.445399,69.804642 45.251524,73.071217 40.527372,85.77827 C 31.311153,90.622439 33.476751,102.59875 21.86765,104.38665 C 13.211396,119.25562 35.294046,117.79355 44.342773,122.76658 C 56.474481,124.03587 36.036522,129.24411 48.147988,130.15645 C 64.490801,133.1209 80.553315,137.70141 97.34113,137.40088 C 112.50928,137.14408 126.70944,141.22772 141.41334,143.09303 C 146.1586,142.57837 153.37709,148.35029 156.51669,145.34044 z "
       style="fill:#8e6a2f"
       id="path2302" /><path
       d="M 0,115 C 0,0 0,0 153.5,0 C 307,0 307,0 307,115 C 307,230 307,230 153.5,230 C 0,230 0,230 0,115 z M 158.59965,150.48825 C 159.50482,149.1068 161.42769,147.70049 162.87271,147.36313 C 164.31772,147.02578 166.22188,145.84648 167.10418,144.74247 C 168.59631,142.87538 169.85349,142.73886 185.10418,142.78786 C 200.8198,142.83836 231.13095,141.4976 237.5748,140.46692 C 243.12929,139.57849 246.28298,135.42583 243.50948,132.65234 C 241.633,130.77586 245.80803,126.86304 251.7246,124.95317 C 253.80107,124.28289 256.30503,122.89422 257.28896,121.86724 C 258.27288,120.84026 259.51038,119.94375 260.03896,119.875 C 260.56753,119.80625 262.2375,119.59735 263.75,119.41077 C 267.85091,118.9049 281.45798,116.68178 281.77798,116.46537 C 282.68214,115.85389 279.79926,111.07106 278.22544,110.57155 C 276.16425,109.91736 275.90621,106.69379 277.76614,104.83386 C 278.61269,103.98731 278.51892,102.78438 277.3971,100.09947 C 276.56992,98.119763 275.94078,96.336574 275.999,96.136831 C 276.14532,95.634891 267.26815,91.573631 262.80515,90.100709 C 259.63386,89.054087 259.14841,88.485117 259.22188,85.900948 C 259.33185,82.03322 255.06915,77.581823 244.5,70.527371 C 240.1,67.59056 235.40906,64.020479 234.07569,62.593857 C 232.74231,61.167236 231.07527,60 230.37114,60 C 229.66701,60 227.94545,58.854545 226.54545,57.454545 C 225.14545,56.054545 224,55.238736 224,55.641637 C 224,56.044537 222.7625,55.219975 221.25,53.809278 C 217.645,50.446922 215.07665,49.179053 207.10795,46.828033 C 190.27239,41.861008 189.81676,41.789528 178.75306,42.379623 C 172.84224,42.694882 166.89099,42.528854 165.52807,42.010671 C 164.16514,41.492488 158.65127,40.832277 153.27501,40.543535 C 147.89876,40.254792 140.12314,39.752333 135.99586,39.426957 C 129.79958,38.938471 127.571,39.198281 123.20884,40.917683 C 120.30326,42.062957 115.78566,43 113.16975,43 C 108.29662,43 90.914838,47.522273 89.979934,49.033365 C 89.693897,49.495688 87.264444,50.815021 84.581148,51.965216 C 81.757975,53.175369 78.043992,55.940562 75.766227,58.52824 C 73.601317,60.987708 71.027053,63 70.045642,63 C 69.06423,63 65.990662,64.807875 63.21549,67.017499 C 60.440318,69.227124 55.769036,72.112953 52.834862,73.430454 C 46.670879,76.198201 39.845146,82.432882 40.658498,84.552444 C 40.976098,85.380095 40.426141,86.281118 39.353754,86.690076 C 35.277729,88.24448 32.5,91.920398 32.5,95.760015 C 32.5,98.87717 32.125301,99.553216 30.25,99.819551 C 29.0125,99.995304 28,100.5578 28,101.06955 C 28,101.5813 27.11753,102 26.038955,102 C 23.070802,102 19.782474,106.03461 20.342419,108.98936 C 20.601881,110.3585 20.406319,112.24079 19.907837,113.17221 C 18.938852,114.98277 21.982184,116.74708 23.962806,115.52299 C 24.502192,115.18963 26.135792,115.69809 27.593028,116.65291 C 29.050264,117.60773 31.129321,118.45427 32.213155,118.53412 C 33.296989,118.61397 34.503218,119.19619 34.893663,119.82794 C 35.284109,120.4597 38.03945,121.43854 41.016645,122.00316 C 47.875794,123.30397 48.79002,124.25234 45.354708,126.50324 C 42.606723,128.30379 42.606723,128.30379 47.553362,130.61625 C 50.274013,131.8881 53.260942,132.94475 54.190983,132.96436 C 56.681347,133.01685 57.307216,134.72271 55.271032,135.90813 C 53.943393,136.68105 55.502867,136.95656 61.5,137.0086 C 65.9,137.04678 73.55,137.26029 78.5,137.48305 C 83.45,137.70582 93.047519,138.13502 99.82782,138.43683 C 113.90708,139.06354 120.8365,140.60884 131.63568,145.53019 C 137.06061,148.0024 140.67786,149 144.21711,149 C 147.67035,149 149.95959,149.60965 151.72713,151 C 155.07927,153.6368 156.6114,153.52271 158.59965,150.48825 z "
       style="fill:#5d5c60"
       id="path2304" /><path
       d="M 0,115 C 0,0 0,0 153.5,0 C 307,0 307,0 307,115 C 307,230 307,230 153.5,230 C 0,230 0,230 0,115 z M 158.59965,150.48825 C 159.50482,149.1068 161.42769,147.70049 162.87271,147.36313 C 164.31772,147.02578 166.22188,145.84648 167.10418,144.74247 C 168.59631,142.87538 169.85349,142.73886 185.10418,142.78786 C 200.8198,142.83836 231.13095,141.4976 237.5748,140.46692 C 243.12929,139.57849 246.28298,135.42583 243.50948,132.65234 C 241.633,130.77586 245.80803,126.86304 251.7246,124.95317 C 253.80107,124.28289 256.30503,122.89422 257.28896,121.86724 C 258.27288,120.84026 259.51038,119.94375 260.03896,119.875 C 260.56753,119.80625 262.2375,119.59735 263.75,119.41077 C 267.85091,118.9049 281.45798,116.68178 281.77798,116.46537 C 282.68214,115.85389 279.79926,111.07106 278.22544,110.57155 C 276.16425,109.91736 275.90621,106.69379 277.76614,104.83386 C 278.61269,103.98731 278.51892,102.78438 277.3971,100.09947 C 276.56992,98.119763 275.94078,96.336574 275.999,96.136831 C 276.14532,95.634891 267.26815,91.573631 262.80515,90.100709 C 259.70629,89.077993 259.14925,88.455305 259.21653,86.089148 C 259.26033,84.548639 258.935,82.703843 258.49357,81.989603 C 257.96453,81.133586 258.08447,80.934171 258.84549,81.404508 C 259.48047,81.796948 260,81.593331 260,80.952028 C 260,80.310725 260.675,80.059167 261.5,80.393011 C 262.325,80.726855 263.675,81.273145 264.5,81.606989 C 265.325,81.940833 266,81.715833 266,81.106989 C 266,80.498145 265.18419,80 264.18709,80 C 262.47654,80 257,75.195828 257,73.695281 C 257,73.312877 257.675,73 258.5,73 C 261.29321,73 260.02043,70.103531 256.49134,68.428866 C 254.56158,67.513134 251.97408,65.699795 250.74134,64.399226 C 249.5086,63.098656 247.825,62.007261 247,61.973904 C 244.86705,61.887664 237.47501,57.5 237.62687,56.410331 C 237.74634,55.553062 225.56947,47.025759 224.15705,46.977594 C 223.79567,46.96527 220.8,45.625353 217.5,44 C 214.2,42.374647 210.7432,41.03473 209.81822,41.022406 C 208.89324,41.010083 204.61824,39.70842 200.31822,38.129822 C 195.81652,36.477184 189.13905,34.949403 184.57704,34.528295 C 179.77419,34.084955 176.0709,33.213759 175.17319,32.316046 C 174.14374,31.286598 172.65587,31.029578 170.29253,31.472944 C 168.29877,31.846975 164.74214,31.485539 161.69249,30.598982 C 155.71643,28.861694 156.32204,28.911276 140.5,28.863946 C 118.65912,28.798612 116.56213,28.903028 108.5,30.457332 C 104.1,31.305611 99.049538,31.999734 97.276751,31.999829 C 95.503965,31.999923 91.903965,32.956336 89.276751,34.125191 C 76.831382,39.662175 67.953245,44.571952 67.435271,46.203942 C 67.121746,47.191774 66.445549,48 65.932612,48 C 65.419676,48 65,48.565777 65,49.257282 C 65,49.948787 62.921336,51.770123 60.380746,53.304695 C 57.840157,54.839267 56.034421,56.367754 56.367999,56.701332 C 57.495922,57.829255 51.044343,63 48.509102,63 C 47.129096,63 46,63.401216 46,63.891592 C 46,64.381968 44.887989,65.062281 43.528865,65.403399 C 42.16974,65.744518 40.560678,66.952364 39.953171,68.087501 C 39.345664,69.222639 37.982674,71.017326 36.924306,72.075694 C 35.005931,73.994069 34.162519,78.635625 35.930902,77.542705 C 36.442898,77.226274 37.144455,77.424717 37.489919,77.983688 C 37.835382,78.54266 38.991476,79 40.059017,79 C 42.057497,79 42.744185,81.422034 41.043674,82.473008 C 40.517695,82.798081 40.339384,83.720846 40.647428,84.523596 C 40.977647,85.384133 40.446714,86.273272 39.353754,86.690076 C 35.277729,88.24448 32.5,91.920398 32.5,95.760015 C 32.5,98.87717 32.125301,99.553216 30.25,99.819551 C 29.0125,99.995304 28,100.5578 28,101.06955 C 28,101.5813 27.11753,102 26.038955,102 C 23.070802,102 19.782474,106.03461 20.342419,108.98936 C 20.601881,110.3585 20.406319,112.24079 19.907837,113.17221 C 18.938852,114.98277 21.982184,116.74708 23.962806,115.52299 C 24.502192,115.18963 26.135792,115.69809 27.593028,116.65291 C 29.050264,117.60773 31.129321,118.45427 32.213155,118.53412 C 33.296989,118.61397 34.503218,119.19619 34.893663,119.82794 C 35.284109,120.4597 38.03945,121.43854 41.016645,122.00316 C 47.875794,123.30397 48.79002,124.25234 45.354708,126.50324 C 42.606723,128.30379 42.606723,128.30379 47.553362,130.61625 C 50.274013,131.8881 53.260942,132.94475 54.190983,132.96436 C 56.681347,133.01685 57.307216,134.72271 55.271032,135.90813 C 53.943393,136.68105 55.502867,136.95656 61.5,137.0086 C 65.9,137.04678 73.55,137.26029 78.5,137.48305 C 83.45,137.70582 93.047519,138.13502 99.82782,138.43683 C 113.90708,139.06354 120.8365,140.60884 131.63568,145.53019 C 137.06061,148.0024 140.67786,149 144.21711,149 C 147.67035,149 149.95959,149.60965 151.72713,151 C 155.07927,153.6368 156.6114,153.52271 158.59965,150.48825 z "
       style="fill:#796338"
       id="path2306" /><path
       d="M 0,115 C 0.70920449,87.505726 -1.9713066,59.151252 6.2350006,32.501678 C 12.136779,12.987485 33.166733,5.2945265 51.599856,3.2528329 C 95.417789,-1.7366553 139.64587,0.54314758 183.65562,0.039975643 C 214.06681,0.90264093 245.38935,-1.1702947 274.86937,7.7104187 C 291.83307,12.35687 302.25564,28.751864 304.12316,45.546131 C 308.78448,79.718341 306.51514,114.37637 306.79915,148.75765 C 305.68449,169.89248 307.06413,193.92939 292.71887,211.19116 C 276.16073,227.52625 251.01,227.26421 229.32541,229.0362 C 179.56802,230.47573 129.74282,230.38051 79.981611,229.14318 C 58.143984,227.46565 33.354273,227.88933 15.810013,212.75772 C 0.20717335,196.39318 1.4176366,171.93528 0.24703145,150.87691 C -0.024851326,138.92009 0.0076917752,126.9591 0,115 z M 158.59966,150.48825 C 169.12682,139.39554 185.27635,143.59474 199.02813,142.48648 C 215.0608,141.9534 231.4547,142.99363 247.0489,139.01822 C 261.36521,140.37864 273.64043,133.79457 284.04489,124.64915 C 287.69818,120.41872 289.99186,116.36182 282.41467,116.21185 C 272.57262,109.95645 283.45458,95.29429 268.97963,92.525508 C 258.24421,92.937032 254.14905,76.295053 266,81.106989 C 261.97043,79.152118 253.70406,74.239203 259.86653,71.342432 C 249.46537,62.754889 237.10775,57.461056 226.87437,48.351225 C 211.70019,40.797001 195.27439,35.621195 178.41069,33.592561 C 165.75696,30.347565 152.02766,28.359084 138.50948,28.858357 C 122.65157,28.103259 106.84181,30.175593 91.385809,33.300006 C 79.44659,37.624408 68.59443,44.147513 60.380746,53.304695 C 53.923277,63.226684 39.106829,63.440871 35.04507,75.938436 C 39.318219,78.255592 45.871322,83.976861 36.563283,88.223071 C 32.763417,95.785537 30.828918,101.90964 21.847058,104.39417 C 23.066086,114.63381 12.238682,117.06528 6.4306178,118.49091 C 12.990123,124.12198 31.580667,121.19129 32.821015,125.5683 C 27.167655,125.70914 9.277491,128.35341 23.570869,132.92767 C 36.21183,140.04347 50.997076,137.28548 64.905201,137.91759 C 88.544274,138.71628 113.63511,135.81534 135.39246,147.11531 C 142.9615,146.58386 153.19658,154.72333 158.59966,150.48825 z "
       style="fill:#635c51"
       id="path2308" /><path
       d="M 0,171 C 0.15869538,151.342 -0.20769235,131.64939 0.75,112.01531 C 6.7151662,122.45468 21.530602,122.57823 32.987216,124.15243 C 35.274567,127.01665 6.038546,126.72156 23.570869,132.92767 C 36.21183,140.04347 50.997076,137.28548 64.905201,137.91759 C 88.544274,138.71628 113.63511,135.81534 135.39246,147.11531 C 145.48597,146.88042 155.57611,157.43552 162.87271,147.36313 C 174.79916,139.09519 190.77274,144.17981 204.50255,142.40875 C 218.73598,142.02402 233.23831,142.60119 247.0489,139.01822 C 261.4305,140.38413 273.77725,133.73468 284.1904,124.5 C 286.73466,116.98364 305.56022,111.96722 305.09668,114.0146 C 308.44721,127.15398 306.17166,141.76736 306.98274,155.47011 C 306.26336,173.16581 309.14661,191.56125 303.58504,208.68077 C 296.04511,225.71948 274.70776,226.22273 258.8012,228.11305 C 206.88194,231.22025 154.81658,229.6491 102.83301,229.88477 C 74.940081,228.92334 46.185372,230.90292 19.1875,222.625 C 5.3958618,218.61699 0.073938481,203.58663 0.29980469,190.47461 C -0.032245748,183.98895 0.010071581,177.49186 0,171 z M 302.24347,95.030968 C 292.84606,87.179842 276.85583,91.214097 270.97382,78.857504 C 265.72789,77.207264 253.03085,63.537789 243.14495,60.509716 C 232.88081,52.181683 221.80794,43.890664 208.54831,40.787231 C 196.24658,35.921151 182.70046,34.465319 170.29253,31.472944 C 157.09185,29.370226 143.66213,28.186647 130.1274,28.853537 C 116.38756,28.772841 102.48078,30.662497 89.276751,34.125191 C 77.042912,38.228864 67.632674,46.151344 58.635034,54.435908 C 52.700817,63.588226 40.359067,64.646278 34.135547,74.300589 C 23.26253,79.651622 12.656934,83.519684 2.6500472,89.845886 C -2.4613534,79.858608 1.036273,65.585435 -0.0035613367,53.854622 C 0.90792731,40.194392 -2.8489989,24.357213 6.2350006,12.730437 C 19.618956,1.3636003 38.636908,2.67277 55.157255,1.087954 C 113.94219,-0.69738144 172.78509,-0.03429075 231.58763,0.44950396 C 252.48686,1.5850749 274.49428,0.23080318 294.14587,8.523927 C 309.64136,16.285491 306.52065,35.925846 306.99991,50.25635 C 306.63384,65.426964 307.83444,80.755456 305.79697,95.814916 C 305.40187,98.542714 302.6883,95.713049 302.24347,95.030968 z "
       style="fill:#565658"
       id="path2310" /><path
       d="M 0,171 C 0.15881684,151.33823 -0.20793316,131.66245 0.75,112.01531 C 6.6048612,123.7851 24.975103,121.39106 32.520228,125.09729 C 27.669622,126.20435 10.158376,128.5816 23.570869,132.92767 C 39.803612,141.2491 58.618682,136.59785 76.074091,138.08929 C 96.054914,138.12553 117.17291,137.61404 135.39246,147.11531 C 146.61006,149.19626 158.64252,155.95719 167.52255,144.84908 C 183.81838,140.12371 201.15897,143.95847 217.89585,142.17356 C 234.42977,141.0926 251.28068,140.52564 267.10782,135.73433 C 280.79587,131.62033 286.45871,116.19652 300.96567,114.02538 C 311.95751,116.38694 304.90885,137.9162 306.79462,147.68199 C 305.92535,168.4663 310.0742,190.23054 302.83834,210.23025 C 293.73981,226.55342 272.65397,226.44412 256.36738,228.2553 C 193.82682,231.34451 131.16849,229.85159 68.587392,229.28425 C 49.66381,228.29678 29.474881,228.10936 12.303733,219.29328 C -2.7409886,208.02041 0.57914574,187.37596 0,171 z M 300.75,88.700577 C 291.09549,78.122674 282.14985,66.947377 269.23905,60.224238 C 256.89938,49.736514 243.59522,40.264365 228.09839,35.087324 C 204.1628,25.093853 179.19632,16.86711 153.14152,15.118503 C 138.39507,12.059859 123.19845,16.189076 108.73937,18.96329 C 88.990087,25.659706 66.232787,23.637167 48.669665,36.132017 C 36.802296,47.820097 24.529832,60.010609 9.0838447,66.80152 C -4.0745513,81.141919 1.1970576,55.516761 -0.0076907636,47.973834 C -0.6780661,31.770389 -2.2349875,7.145701 19.329884,4.5971476 C 52.219168,-0.84903153 85.795334,0.52494332 119.02468,-0.072913553 C 166.72154,0.57831312 214.4928,-1.0283675 262.1306,1.7006753 C 277.60425,3.9776055 300.14974,2.6861155 305.34217,21.522871 C 308.63916,34.974761 306.13531,49.059691 307.07109,62.801715 C 305.09784,70.356837 311.36071,90.628414 300.75,88.700577 L 300.75,88.700577 z "
       style="fill:#6b5630"
       id="path2312" /><path
       d="M 1.9737297e-015,186.08333 C 0.43315188,171.30028 -0.85426448,156.29757 1.25,141.65946 C -1.1478967,134.58665 17.543191,142.14324 24.053934,139.58119 C 56.179634,139.33755 88.726762,136.1498 120.55243,141.79721 C 132.03425,146.68425 144.54407,148.0559 155.67485,152.87085 C 164.90131,141.60997 179.58488,142.44487 192.96828,142.70297 C 211.17948,142.18941 229.65688,143.53346 247.58825,140.20895 C 263.40051,139.11604 279.80729,142.38205 295.14098,138 C 303.3356,133.22418 307.91359,139.38691 306.35859,144.96228 C 306.97051,165.49412 307.93612,186.19995 305.98816,206.6676 C 303.93178,222.78685 285.47294,226.03176 272.2654,227.4072 C 224.32731,231.49929 176.12599,229.48371 128.0677,229.99117 C 93.061761,229.31039 57.673216,231.36799 23.014694,225.47672 C 7.9635101,224.17378 -1.9079152,210.32232 0.073194504,195.5931 C -0.0047604054,192.42382 0.001429885,189.25332 1.9737297e-015,186.08333 z M 300.75,88.700577 C 292.01703,81.599521 287.27239,69.317724 274.95177,64.691834 C 264.68621,56.852229 255.14847,48.281421 244.04719,41.907374 C 231.8546,36.671063 219.91751,31.327762 207.12854,27.239358 C 190.01519,20.247113 171.53981,16.839633 153.14152,15.118503 C 140.8946,11.782296 128.46391,16.18397 116.0913,17.026801 C 102.97643,20.442048 90.169465,24.18097 76.56518,25.402873 C 64.983716,28.478881 51.28533,30.825395 43.909612,41.160378 C 33.314396,49.912381 24.405763,60.56969 10.968661,65.397147 C 6.173197,68.470495 -0.90672803,78.093133 0.25914962,66.03823 C 0.46056858,50.0543 -1.3600502,33.774745 1.616573,18.000603 C 6.8400251,3.6994739 24.838844,3.7096229 37.476671,1.9907227 C 90.133813,-1.3010462 142.95184,0.43138572 195.68031,0.046506617 C 226.38321,0.84451832 257.63315,-1.1581886 287.8125,5.5491264 C 302.6592,7.8554378 308.15532,23.275824 306.96252,36.578714 C 306.64508,54.008823 307.9267,71.627301 305.89086,88.926627 C 304.45263,90.955218 302.34789,89.202133 300.75,88.700577 z "
       style="fill:#494a52"
       id="path2314" /><path
       d="M 1.9737297e-015,186.08333 C 0.43315188,171.30028 -0.85426448,156.29757 1.25,141.65946 C -1.1478967,134.58665 17.543191,142.14324 24.053934,139.58119 C 56.179634,139.33755 88.726762,136.1498 120.55243,141.79721 C 132.03425,146.68425 144.54407,148.0559 155.67485,152.87085 C 164.90131,141.60997 179.58488,142.44487 192.96828,142.70297 C 211.17948,142.18941 229.65688,143.53346 247.58825,140.20895 C 263.40051,139.11604 279.80729,142.38205 295.14098,138 C 303.3356,133.22418 307.91359,139.38691 306.35859,144.96228 C 306.97051,165.49412 307.93612,186.19995 305.98816,206.6676 C 303.93178,222.78685 285.47294,226.03176 272.2654,227.4072 C 224.32731,231.49929 176.12599,229.48371 128.0677,229.99117 C 93.061761,229.31039 57.673216,231.36799 23.014694,225.47672 C 7.9635101,224.17378 -1.9079152,210.32232 0.073194504,195.5931 C -0.0047604054,192.42382 0.001429885,189.25332 1.9737297e-015,186.08333 z M 302.66357,75.180733 C 295.112,64.865254 283.01392,59.087012 274.28836,48.94639 C 263.78939,41.137524 251.64361,36.106485 241.56935,27.95285 C 229.16358,26.004094 219.21532,17.06799 208.61024,11.497634 C 195.36368,7.8287586 181.24262,5.6519463 167.47188,3.9524973 C 151.03658,1.9620791 134.21941,1.6477758 117.86715,4.424466 C 108.54529,6.7225648 98.341527,7.3631132 88.715772,11.825202 C 79.563696,8.4587853 70.183864,19.354317 59.300835,18.294367 C 46.340738,21.761186 35.948288,31.155168 22.722534,33.635338 C 16.985489,42.254196 10.532563,50.514274 0.83361021,56 C 0.25391336,41.886309 -1.5544451,27.208735 1.6067657,13.35144 C 9.5799868,0.76098355 27.458922,3.1985129 40.357107,1.2995758 C 100.14514,-0.93065695 160.00664,0.22336364 219.82417,0.19239654 C 244.58897,1.2119811 270.20757,-0.7408158 294.14587,6.7441419 C 309.54441,11.99615 306.7896,30.365636 306.99811,43.251018 C 305.7364,53.726421 309.56581,68.956858 304.02908,76.516159 L 302.66356,75.180731 L 302.66357,75.180733 z "
       style="fill:#45464c"
       id="path2316" /><path
       d="M 1.9737297e-015,186.08333 C 0.43315188,171.30028 -0.85426448,156.29757 1.25,141.65946 C -1.1478967,134.58665 17.543191,142.14324 24.053934,139.58119 C 56.179634,139.33755 88.726762,136.1498 120.55243,141.79721 C 132.03425,146.68425 144.54407,148.0559 155.67485,152.87085 C 164.90131,141.60997 179.58488,142.44487 192.96828,142.70297 C 211.17948,142.18941 229.65688,143.53346 247.58825,140.20895 C 263.40051,139.11604 279.80729,142.38205 295.14098,138 C 303.3356,133.22418 307.91359,139.38691 306.35859,144.96228 C 306.97051,165.49412 307.93612,186.19995 305.98816,206.6676 C 303.93178,222.78685 285.47294,226.03176 272.2654,227.4072 C 224.32731,231.49929 176.12599,229.48371 128.0677,229.99117 C 93.061761,229.31039 57.673216,231.36799 23.014694,225.47672 C 7.9635101,224.17378 -1.9079152,210.32232 0.073194504,195.5931 C -0.0047604054,192.42382 0.001429885,189.25332 1.9737297e-015,186.08333 z M 300.98389,54.97736 C 291.15274,44.17637 275.24643,42.61945 265.60009,32.375486 C 253.05492,29.204344 242.58663,20.355446 230.53721,15.374143 C 216.72705,11.133754 204.09476,2.5078249 189.25167,2.5160909 C 182.11754,-1.1970051 201.75229,0.75333973 205.22942,0.09967664 C 234.15988,0.4768369 263.23361,-1.3472542 292.06076,1.4972877 C 309.56814,2.2229267 307.2594,22.518167 306.99414,34.864463 C 305.92878,38.785773 310.09109,65.979367 300.98389,54.97736 z M 0,20.968615 C -4.5365995,3.924737 12.586314,-1.878019 26.3218,0.13822085 C 49.811489,0.18892842 73.383731,-0.68919767 96.823544,0.78151348 C 95.507299,6.1086858 78.724271,0.59137632 73.246254,7.9211235 C 56.527993,16.069854 37.961611,18.849315 21,26.239784 C 11.812187,26.630121 3.9814507,37.915145 0.76823136,40.605008 C -0.20485992,34.117251 0.10219912,27.509744 0,20.968615 z M 179.98746,1.4476993 C 176.04087,-3.6034505 189.78791,4.2612071 179.98746,1.4476993 z M 109.5,1 C 117.69533,-3.0939114 118.89169,3.8596666 109.5,1 z "
       style="fill:#3d414c"
       id="path2318" /><path
       d="M 1.9737297e-015,186.08333 C 0.43315188,171.30028 -0.85426448,156.29757 1.25,141.65946 C -1.1478967,134.58665 17.543191,142.14324 24.053934,139.58119 C 56.179634,139.33755 88.726762,136.1498 120.55243,141.79721 C 132.03425,146.68425 144.54407,148.0559 155.67485,152.87085 C 164.90131,141.60997 179.58488,142.44487 192.96828,142.70297 C 211.17948,142.18941 229.65688,143.53346 247.58825,140.20895 C 263.40051,139.11604 279.80729,142.38205 295.14098,138 C 303.3356,133.22418 307.91359,139.38691 306.35859,144.96228 C 306.97051,165.49412 307.93612,186.19995 305.98816,206.6676 C 303.93178,222.78685 285.47294,226.03176 272.2654,227.4072 C 224.32731,231.49929 176.12599,229.48371 128.0677,229.99117 C 93.061761,229.31039 57.673216,231.36799 23.014694,225.47672 C 7.9635101,224.17378 -1.9079152,210.32232 0.073194504,195.5931 C -0.0047604054,192.42382 0.001429885,189.25332 1.9737297e-015,186.08333 z M 300.69492,46.137299 C 291.3281,37.529682 280.09301,30.469316 268.43915,25.128662 C 256.57171,16.392723 244.00376,7.5408772 229.25158,4.4840434 C 216.01994,-1.6852943 240.30369,0.74826569 245.62121,0.10497973 C 263.58408,0.58941358 281.90068,-1.5761684 299.61389,1.9589362 C 312.14064,8.7263194 305.14031,26.300858 306.91109,37.89624 C 307.00893,41.849355 307.20884,51.953603 300.69492,46.137299 z M 1.25,24.27939 C -3.0768683,12.600809 -0.12474256,-4.4382984 16.133952,0.023274741 C 24.80406,1.1227538 43.490359,-2.4689696 46.453784,2.2955064 C 33.195502,8.5941847 18.395302,11.375479 6.6429775,20.456859 C 5.0391544,21.952053 3.4937135,23.738194 1.25,24.27939 z "
       style="fill:#6e4a10"
       id="path2320" /><path
       d="M 0,186.42857 C 0.70330385,171.66477 -1.7591002,156.39976 1.8581405,141.98497 C 13.390584,137.64362 28.391905,142.26464 41.167024,139.19634 C 65.101595,138.90908 89.299192,138.086 113.03472,141.22944 C 123.43551,151.55189 138.28789,152.92869 150.35851,158.83791 C 161.4007,166.84805 164.19244,148.16963 175.17754,147.09104 C 188.59386,141.28041 203.99999,144.63135 218.25279,143.12421 C 236.82573,142.24967 255.28401,139.68659 273.94098,140.74632 C 286.17168,142.94907 311.78371,134.58129 306.80243,155.45191 C 306.4845,173.43304 308.49833,191.67567 305.39323,209.46194 C 301.12415,224.78233 282.64008,226.09175 269.52441,227.72865 C 218.85908,231.42249 167.98726,229.51721 117.22927,229.97235 C 85.175192,229.25998 52.683451,231.16328 21.043127,225.04838 C 5.7701635,223.36034 -1.7057657,208.21142 0.037475586,194.09825 C -0.0019272437,191.54189 0.0005769679,188.98514 0,186.42857 z M 300.69492,46.137299 C 291.3281,37.529682 280.09301,30.469316 268.43915,25.128662 C 256.57171,16.392723 244.00376,7.5408772 229.25158,4.4840434 C 216.01994,-1.6852943 240.30369,0.74826569 245.62121,0.10497973 C 263.58408,0.58941358 281.90068,-1.5761684 299.61389,1.9589362 C 312.14064,8.7263194 305.14031,26.300858 306.91109,37.89624 C 307.00893,41.849355 307.20884,51.953603 300.69492,46.137299 z M 1.25,24.27939 C -3.0768683,12.600809 -0.12474256,-4.4382984 16.133952,0.023274741 C 24.80406,1.1227538 43.490359,-2.4689696 46.453784,2.2955064 C 33.195502,8.5941847 18.395302,11.375479 6.6429775,20.456859 C 5.0391544,21.952053 3.4937135,23.738194 1.25,24.27939 z "
       style="fill:#373a46"
       id="path2322" /><path
       d="M 0,186.42857 C 0.70330385,171.66477 -1.7591002,156.39976 1.8581405,141.98497 C 13.390584,137.64362 28.391905,142.26464 41.167024,139.19634 C 65.101595,138.90908 89.299192,138.086 113.03472,141.22944 C 123.43551,151.55189 138.28789,152.92869 150.35851,158.83791 C 161.4007,166.84805 164.19244,148.16963 175.17754,147.09104 C 188.59386,141.28041 203.99999,144.63135 218.25279,143.12421 C 236.82573,142.24967 255.28401,139.68659 273.94098,140.74632 C 286.17168,142.94907 311.78371,134.58129 306.80243,155.45191 C 306.4845,173.43304 308.49833,191.67567 305.39323,209.46194 C 301.12415,224.78233 282.64008,226.09175 269.52441,227.72865 C 218.85908,231.42249 167.98726,229.51721 117.22927,229.97235 C 85.175192,229.25998 52.683451,231.16328 21.043127,225.04838 C 5.7701635,223.36034 -1.7057657,208.21142 0.037475586,194.09825 C -0.0019272437,191.54189 0.0005769679,188.98514 0,186.42857 z M 299.5,28.79731 C 287.02428,18.79475 274.39088,8.4014275 260,1.5 C 270.53609,-1.4552835 284.80853,0.46166043 296.82334,0.2248908 C 311.30104,-0.41100513 309.20874,23.478941 303.41408,30.38968 L 301.68849,29.908117 L 299.5,28.797309 L 299.5,28.79731 z M 0,2 C 6.0097693,-6.0319391 4.5317439,8.3853311 0,2 z "
       style="fill:#2c303a"
       id="path2324" /><path
       d="M 0,186.42857 C 0.43918945,172.18135 -1.1097613,157.73957 1.1844448,143.62253 C 7.981402,135.15259 22.49571,143.76947 32.316115,139.72412 C 58.734536,138.3696 85.346509,138.38909 111.694,140.80592 C 121.69154,146.50732 131.403,155.03477 143.61534,155.13518 C 150.28247,158.83337 160.77141,166.24531 163.47025,153.82139 C 173.11187,147.93975 183.19893,142.22068 195.08949,143.69603 C 213.13352,143.61052 231.13867,142.59206 249.07511,140.89855 C 267.94706,140.75963 287.06711,139.98399 305.75,142.67857 C 307.91922,159.76676 306.64306,177.25766 306.96252,194.51023 C 307.25858,204.98966 305.32528,218.08585 294.14587,222.33421 C 274.25204,229.78056 252.47854,228.56436 231.58763,229.59575 C 175.31506,230.13883 119.02037,230.4416 62.755138,229.25336 C 45.18809,228.04526 26.427075,228.95661 10.291733,220.87963 C -1.7410345,213.86313 0.39364791,198.17979 0,186.42857 z "
       style="fill:#50330a"
       id="path2326" /><path
       d="M -1.888255e-015,186.01904 C 0.44932812,172.11227 -1.1374226,158.00167 1.1684832,144.23019 C 8.0897215,136.32724 22.1666,144.58149 31.860635,140.53545 C 54.162204,139.60468 76.547698,139.18028 98.844032,140.27088 C 111.53584,140.39582 115.82791,157.11841 128.69282,157.10821 C 140.2444,157.40407 149.59018,168.40929 161.10699,166.19656 C 168.5752,156.35408 180.43054,151.1397 191.07506,145.33003 C 209.25668,143.67621 227.79768,144.77984 245.73627,141.33357 C 260.40208,140.74779 275.02949,141.95217 289.60104,143.07563 C 302.51067,138.96484 308.62792,150.15994 306.80499,161.40831 C 306.59939,177.33873 308.36238,193.53933 305.39323,209.27456 C 301.40057,224.22619 283.71932,225.93919 270.91226,227.56167 C 226.67455,231.21635 182.2128,229.55558 137.87304,229.99809 C 101.80551,229.55635 65.541327,231.05253 29.66017,226.6977 C 18.187439,225.20129 3.4950269,221.15121 1.2864666,207.74461 C -0.2278058,200.61588 0.075465163,193.26099 -1.888255e-015,186.01904 z "
       style="fill:#34240b"
       id="path2328" /><path
       d="M 0,186.10277 C 0.73075011,172.71926 -1.7582893,158.55121 2.9811401,145.76185 C 11.175768,138.4422 23.985773,142.6412 34.164429,140.82784 C 55.837427,140.11722 77.662386,139.24841 99.275875,141.08514 C 107.75032,152.54092 120.06342,162.5409 134.74704,163.7355 C 144.91144,163.67573 151.47698,176.47077 162.08676,171.72219 C 168.44037,163.42328 178.79596,160.768 186.80297,153.88397 C 194.42431,145.90121 207.15684,146.91416 217.3225,144.91789 C 235.48731,143.56316 253.64163,140.43063 271.87527,142.73193 C 282.351,144.6164 294.37008,140.99056 303.88721,145.73314 C 308.59903,156.05095 306.30933,168.03827 306.99689,179.10457 C 306.17819,191.97101 309.6874,206.99624 300.765,217.76877 C 289.32591,227.60663 273.02802,227.08356 258.8012,228.57772 C 205.49138,230.9005 152.10187,229.76874 98.756412,229.88782 C 72.227583,229.15392 45.218347,230.53749 19.1875,224.51285 C 7.7666629,222.52575 -0.1133682,212.02789 0.29980469,200.59229 C -0.032111122,195.77024 0.010013349,190.93318 0,186.10277 z "
       style="fill:#251b0b"
       id="path2330" /><path
       d="M -0.00063387048,229.70528 C 0.51612303,202.87446 -1.452371,175.42931 5.9603878,149.3146 C 12.964995,137.61668 28.701692,143.36788 39.888475,141.88501 C 55.329684,141.42534 70.868026,139.87452 86.25753,141.97492 C 99.266795,153.41641 110.13363,169.30468 128.29123,172.79415 C 141.84948,172.31982 148.76651,187.74649 162.16464,185.45874 C 169.71944,177.33045 177.95483,167.93744 190.37023,166.20308 C 202.51337,162.82563 212.17095,153.48603 224.26309,149.62122 C 244.95186,140.07699 268.31997,142.71068 290.18289,145.17252 C 298.34251,143.06968 310.69829,144.60309 306.445,156.19035 C 307.2504,180.72171 307.1471,205.26946 307.21513,229.81046 C 204.81023,230.2314 102.40432,229.94111 -0.00063387048,229.70528 z "
       style="fill:#030301"
       id="path2332" /></g><path
     d="M 1.6704712,7.5337303 C 3.0880433,7.6847581 4.927006,8.0371681 6.2229768,8.2556539 C 6.4361863,6.8244485 6.7406144,5.2632849 6.8850204,3.7784319 L 1.6704712,7.5337303 L 1.6704712,7.5337303 z "
     style="fill:#dddddd;stroke:#ffffff;stroke-width:0.49968427"
     id="_201469304" /><path
     d="M 7.015439,4.0453953 C 13.271425,4.7662919 20.351956,5.9187774 30.778682,2.9736467 C 29.02467,12.487903 29.411145,18.524907 30.527335,27.720252 C 21.385142,29.261656 11.924073,29.527415 2.1440575,28.039163 C 1.0413244,23.054714 0.92698238,15.214866 1.8009606,7.8006937 L 7.015439,4.0453953 L 7.015439,4.0453953 z "
     style="fill:none;stroke:#c8c8c8;stroke-width:0.38976857"
     id="_43077240" /><path
     d="M 1.8009606,7.8006937 C 3.4137888,7.986495 4.9249167,8.2370277 6.3534308,8.522688 C 6.6156137,7.0669783 6.8362949,5.5650572 7.015439,4.0453953"
     style="fill:none;stroke:#c8c8c8;stroke-width:0.38976857"
     id="_43075416" /></g>
<g
   transform="matrix(-0.1530631,0,0,-0.1530631,32.940631,18.292279)"
   id="Layer_1">
    <g
   id="g101">
      <linearGradient
   x1="64"
   y1="-1.1782227"
   x2="63.999996"
   y2="99.457672"
   id="XMLID_4_"
   gradientUnits="userSpaceOnUse">
        <stop
   style="stop-color:#00008d;stop-opacity:1"
   offset="0"
   id="stop105" />
        <stop
   style="stop-color:#0053bd;stop-opacity:1"
   offset="1"
   id="stop107" />
        <midPointStop
   offset="0"
   style="stop-color:#00008D"
   id="midPointStop109" />
        <midPointStop
   offset="0.5"
   style="stop-color:#00008D"
   id="midPointStop111" />
        <midPointStop
   offset="1"
   style="stop-color:#0053BD"
   id="midPointStop113" />
      </linearGradient>
      <path
   d="M 121.44922,65.81543 C 120.77441,63.824219 118.99023,62.495117 116.99121,62.495117 L 100.32031,62.495117 L 100.32031,20.548828 C 100.32031,14.373047 95.589844,9.3662109 89.75293,9.3662109 L 34.930664,9.3662109 C 29.09375,9.3662109 24.363281,14.373047 24.363281,20.548828 L 24.363281,62.495117 L 11.010742,62.495117 C 9.0107422,62.495117 7.2255859,63.824219 6.5507813,65.81543 C 5.8759766,67.807617 6.4560547,70.035156 8.0009766,71.376953 L 60.989258,117.49219 C 62.738281,119.01465 65.259766,119.0127 67.008789,117.49219 L 119.99902,71.376953 C 121.54395,70.033203 122.12402,67.807617 121.44922,65.81543 z "
   style="fill:url(#XMLID_4_)"
   id="path116" />
      <radialGradient
   cx="27.575684"
   cy="107.81738"
   r="115.48331"
   fx="27.575684"
   fy="107.81738"
   id="XMLID_5_"
   gradientUnits="userSpaceOnUse"
   gradientTransform="matrix(1,0,0,1.0565,0,-0.544571)">
        <stop
   style="stop-color:#ffffff;stop-opacity:1"
   offset="0"
   id="stop120" />
        <stop
   style="stop-color:#ddeeff;stop-opacity:1"
   offset="0.0571753"
   id="stop122" />
        <stop
   style="stop-color:#b5daff;stop-opacity:1"
   offset="0.13292681"
   id="stop124" />
        <stop
   style="stop-color:#9dceff;stop-opacity:1"
   offset="0.1933101"
   id="stop126" />
        <stop
   style="stop-color:#94caff;stop-opacity:1"
   offset="0.23033699"
   id="stop128" />
        <stop
   style="stop-color:#0b74ff;stop-opacity:1"
   offset="0.59550601"
   id="stop130" />
        <stop
   style="stop-color:#0035ed;stop-opacity:1"
   offset="0.81460702"
   id="stop132" />
        <midPointStop
   offset="0"
   style="stop-color:#FFFFFF"
   id="midPointStop134" />
        <midPointStop
   offset="0.4"
   style="stop-color:#FFFFFF"
   id="midPointStop136" />
        <midPointStop
   offset="0.230337"
   style="stop-color:#94CAFF"
   id="midPointStop138" />
        <midPointStop
   offset="0.5"
   style="stop-color:#94CAFF"
   id="midPointStop140" />
        <midPointStop
   offset="0.595506"
   style="stop-color:#0B74FF"
   id="midPointStop142" />
        <midPointStop
   offset="0.5"
   style="stop-color:#0B74FF"
   id="midPointStop144" />
        <midPointStop
   offset="0.814607"
   style="stop-color:#0035ED"
   id="midPointStop146" />
      </radialGradient>
      <path
   d="M 95.583984,67.506836 C 95.583984,51.699707 95.583984,20.548828 95.583984,20.548828 C 95.583984,17.146484 92.966797,14.378418 89.75293,14.378418 L 34.930664,14.378418 C 31.714844,14.378418 29.099609,17.146484 29.099609,20.548828 C 29.099609,20.548828 29.099609,53.683105 29.099609,67.506836 L 11.010742,67.506836 L 63.999023,113.62207 L 116.99121,67.506836 L 95.583984,67.506836 z "
   style="fill:url(#XMLID_5_)"
   id="path149" />
      <linearGradient
   x1="62.342285"
   y1="8.8261719"
   x2="62.342281"
   y2="61.276535"
   id="XMLID_6_"
   gradientUnits="userSpaceOnUse">
        <stop
   style="stop-color:#ffffff;stop-opacity:1"
   offset="0"
   id="stop153" />
        <stop
   style="stop-color:#74aeff;stop-opacity:1"
   offset="1"
   id="stop155" />
        <midPointStop
   offset="0"
   style="stop-color:#FFFFFF"
   id="midPointStop157" />
        <midPointStop
   offset="0.5"
   style="stop-color:#FFFFFF"
   id="midPointStop159" />
        <midPointStop
   offset="1"
   style="stop-color:#74AEFF"
   id="midPointStop161" />
      </linearGradient>
      <path
   d="M 51.40918,61.350586 C 65.807617,53.766113 78.779297,45.339844 93.786133,42.545898 L 93.786133,19.881348 C 93.786133,17.89502 91.976562,16.278809 89.75293,16.278809 L 34.930664,16.278809 C 32.707031,16.278809 30.898438,17.895019 30.898438,19.881348 L 30.898438,60.837891 C 37.523438,63.865723 44.720703,64.757324 51.40918,61.350586 z "
   style="fill:url(#XMLID_6_)"
   id="path164" />
    </g>
    <polyline
   style="fill:none"
   points="0,128 0,0 128,0 128,128 "
   id="_x3C_Slice_x3E_" />
  </g></svg>